…
```r
library(tidyverse)
(total_steps <- activity %>%
  group_by(date) %>%
  summarise(total_steps = sum(steps)))
```

```
## # A tibble: 61 x 2
##    date       total_steps
##    <date>           <int>
##  1 2012-10-01          NA
##  2 2012-10-02         126
##  3 2012-10-03       11352
##  4 2012-10-04       12116
##  5 2012-10-05       13294
##  6 2012-10-06       15420
##  7 2012-10-07       11015
##  8 2012-10-08          NA
##  9 2012-10-09       12811
## 10 2012-10-10        9900
## # ... with 51 more rows
```
…
6. Code to describe and show a strategy for imputing missing data: impute the NAs with the mean for that 5-minute interval

```r
activity_NA_imputed <- activity
activity_NA_imputed[is.na(activity_NA_imputed$steps),] <- activity_NA_imputed %>%
  filter(is.na(steps)) %>%
  left_join(avg_steps, by = "interval") %>%
  mutate(steps = round(avg_steps)) %>% select(1:3)
activity_NA_imputed
```

```
## # A tibble: 17,568 x 3
##    steps date       interval
##    <dbl> <date>        <int>
##  1     2 2012-10-01        0
##  2     0 2012-10-01        5
##  3     0 2012-10-01       10
##  4     0 2012-10-01       15
##  5     0 2012-10-01       20
##  6     2 2012-10-01       25
##  7     1 2012-10-01       30
##  8     1 2012-10-01       35
##  9     0 2012-10-01       40
## 10     1 2012-10-01       45
## # ... with 17,558 more rows
```
…
